module gitlab.com/e_commerce2/ecommerce_go_order_service

go 1.20

require (
	github.com/jackc/pgx/v4 v4.18.1
	github.com/joho/godotenv v1.5.1
	github.com/spf13/cast v1.5.1
	github.com/streamingfast/logging v0.0.0-20230608130331-f22c91403091
	go.uber.org/zap v1.25.0
	golang.org/x/crypto v0.12.0
)

require (
	github.com/blendle/zapdriver v1.3.1 // indirect
	github.com/jackc/chunkreader/v2 v2.0.1 // indirect
	github.com/jackc/pgconn v1.14.0 // indirect
	github.com/jackc/pgio v1.0.0 // indirect
	github.com/jackc/pgpassfile v1.0.0 // indirect
	github.com/jackc/pgproto3/v2 v2.3.2 // indirect
	github.com/jackc/pgservicefile v0.0.0-20221227161230-091c0ba34f0a // indirect
	github.com/jackc/pgtype v1.14.0 // indirect
	github.com/jackc/puddle v1.3.0 // indirect
	github.com/logrusorgru/aurora v2.0.3+incompatible // indirect
	github.com/mitchellh/go-testing-interface v1.14.1 // indirect
	go.uber.org/multierr v1.10.0 // indirect
	golang.org/x/sys v0.11.0 // indirect
	golang.org/x/term v0.11.0 // indirect
	golang.org/x/text v0.12.0 // indirect
)
